<?xml version="1.0" encoding="iso-8859-1"?>
<!-- Generator: Adobe Illustrator 18.0.0, SVG Export Plug-In . SVG Version: 6.00 Build 0)  -->
<!DOCTYPE svg PUBLIC "-//W3C//DTD SVG 1.1//EN" "http://www.w3.org/Graphics/SVG/1.1/DTD/svg11.dtd">
<svg version="1.1" id="Layer_1" xmlns="http://www.w3.org/2000/svg" xmlns:xlink="http://www.w3.org/1999/xlink" x="0px" y="0px"
	 viewBox="0 0 363.84 375.92" style="enable-background:new 0 0 363.84 375.92;" xml:space="preserve">
<g>
	<path style="fill:#FFFFFF;" d="M353.602,0h-344C4.32,0,0,4.32,0,9.602c0,5.277,4.32,9.597,9.602,9.597H30.32v345.922
		c0,3.52,1.918,6.801,5.039,8.481c3.121,1.679,6.879,1.519,9.84-0.481l41.68-27.762l41.84,27.84c3.203,2.16,7.441,2.16,10.64,0
		l41.68-27.758l41.84,27.84c3.199,2.16,7.441,2.16,10.641,0l41.679-27.761l41.84,27.839c1.602,1.039,3.441,1.602,5.281,1.602
		c1.52,0,3.121-0.402,4.559-1.121c3.121-1.68,5.043-4.961,5.043-8.481l-0.16-345.918h21.84c5.277,0,9.597-4.32,9.597-9.601
		C363.199,4.559,358.879,0,353.602,0L353.602,0z M312.801,347.199l-32.242-21.437c-3.2-2.16-7.438-2.16-10.637,0l-41.684,27.84
		l-41.84-27.84c-3.199-2.16-7.437-2.16-10.636,0l-41.684,27.758l-41.84-27.758c-3.199-2.16-7.437-2.16-10.636,0L49.52,347.121v-328
		h263.199L312.801,347.199z M312.801,347.199"/>
	<rect x="0" y="0.08" style="fill:none;" width="363.84" height="375.84"/>
	<path style="fill:#FFFFFF;" d="M93.68,153.281h100.558c5.282,0,9.602-4.32,9.602-9.601c0-5.282-4.32-9.602-9.602-9.602H93.68
		c-5.282,0-9.602,4.32-9.602,9.602C84.078,148.961,88.32,153.281,93.68,153.281L93.68,153.281z M93.68,153.281"/>
	<path style="fill:#FFFFFF;" d="M93.68,186.641h75.359c5.281,0,9.602-4.321,9.602-9.602c0-5.277-4.321-9.598-9.602-9.598H93.68
		c-5.282,0-9.602,4.321-9.602,9.598C84.078,182.32,88.32,186.641,93.68,186.641L93.68,186.641z M93.68,186.641"/>
	<path style="fill:#FFFFFF;" d="M244.48,153.281h25.122c5.277,0,9.597-4.32,9.597-9.601c0-5.282-4.32-9.602-9.597-9.602H244.48
		c-5.281,0-9.601,4.32-9.601,9.602C234.879,148.961,239.121,153.281,244.48,153.281L244.48,153.281z M244.48,153.281"/>
	<path style="fill:#FFFFFF;" d="M244.48,186.641h25.122c5.277,0,9.597-4.321,9.597-9.602c0-5.277-4.32-9.598-9.597-9.598H244.48
		c-5.281,0-9.601,4.321-9.601,9.598C234.879,182.32,239.121,186.641,244.48,186.641L244.48,186.641z M244.48,186.641"/>
	<path style="fill:#FFFFFF;" d="M93.68,76.238h100.558c5.282,0,9.602-4.316,9.602-9.597c0-5.282-4.32-9.602-9.602-9.602H93.68
		c-5.282,0-9.602,4.32-9.602,9.602C84.078,71.922,88.32,76.238,93.68,76.238L93.68,76.238z M93.68,76.238"/>
	<path style="fill:#FFFFFF;" d="M93.68,109.52h75.359c5.281,0,9.602-4.321,9.602-9.598c0-5.281-4.321-9.602-9.602-9.602H93.68
		c-5.282,0-9.602,4.321-9.602,9.602C84.078,105.199,88.32,109.52,93.68,109.52L93.68,109.52z M93.68,109.52"/>
	<path style="fill:#FFFFFF;" d="M244.48,76.238h25.122c5.277,0,9.597-4.316,9.597-9.597c0-5.282-4.32-9.602-9.597-9.602H244.48
		c-5.281,0-9.601,4.32-9.601,9.602C234.879,71.922,239.121,76.238,244.48,76.238L244.48,76.238z M244.48,76.238"/>
	<path style="fill:#FFFFFF;" d="M244.48,109.52h25.122c5.277,0,9.597-4.321,9.597-9.598c0-5.281-4.32-9.602-9.597-9.602H244.48
		c-5.281,0-9.601,4.321-9.601,9.602C234.879,105.199,239.121,109.52,244.48,109.52L244.48,109.52z M244.48,109.52"/>
	<path style="fill:#FFFFFF;" d="M93.68,231.281h100.558c5.282,0,9.602-4.32,9.602-9.601c0-5.282-4.32-9.602-9.602-9.602H93.68
		c-5.282,0-9.602,4.32-9.602,9.602C84.078,226.961,88.32,231.281,93.68,231.281L93.68,231.281z M93.68,231.281"/>
	<path style="fill:#FFFFFF;" d="M93.68,264.559h75.359c5.281,0,9.602-4.321,9.602-9.598c0-5.281-4.321-9.602-9.602-9.602H93.68
		c-5.282,0-9.602,4.321-9.602,9.602C84.078,260.238,88.32,264.559,93.68,264.559L93.68,264.559z M93.68,264.559"/>
	<path style="fill:#FFFFFF;" d="M244.48,231.281h25.122c5.277,0,9.597-4.32,9.597-9.601c0-5.282-4.32-9.602-9.597-9.602H244.48
		c-5.281,0-9.601,4.32-9.601,9.602C234.879,226.961,239.121,231.281,244.48,231.281L244.48,231.281z M244.48,231.281"/>
	<path style="fill:#FFFFFF;" d="M244.48,264.559h25.122c5.277,0,9.597-4.321,9.597-9.598c0-5.281-4.32-9.602-9.597-9.602H244.48
		c-5.281,0-9.601,4.321-9.601,9.602C234.879,260.238,239.121,264.559,244.48,264.559L244.48,264.559z M244.48,264.559"/>
</g>
</svg>
