<?xml version="1.0" encoding="iso-8859-1"?>
<!-- Generator: Adobe Illustrator 18.0.0, SVG Export Plug-In . SVG Version: 6.00 Build 0)  -->
<!DOCTYPE svg PUBLIC "-//W3C//DTD SVG 1.1//EN" "http://www.w3.org/Graphics/SVG/1.1/DTD/svg11.dtd">
<svg version="1.1" id="Layer_1" xmlns="http://www.w3.org/2000/svg" xmlns:xlink="http://www.w3.org/1999/xlink" x="0px" y="0px"
	 viewBox="0 0 235.92 236" style="enable-background:new 0 0 235.92 236;" xml:space="preserve">
<g>
	<path style="fill:#FFFFFF;" d="M201.324,34.488c-45.984-45.984-120.804-45.984-166.789,0C18.402,50.621,7.367,70.89,2.621,93.105
		C-2,114.734-0.488,137.144,6.996,157.91c0.899,2.492,3.652,3.785,6.145,2.886c2.492-0.898,3.785-3.648,2.886-6.144
		c-6.875-19.078-8.265-39.668-4.019-59.543c4.355-20.398,14.496-39.012,29.316-53.836c42.238-42.238,110.969-42.238,153.211,0
		c20.117,20.117,31.379,46.859,31.707,75.297c0.332,28.387-10.25,55.34-29.785,75.894c-0.234,0.243-0.461,0.489-0.691,0.735
		c-0.403,0.433-0.809,0.867-1.231,1.289c-42.242,42.238-110.973,42.238-153.211,0c-0.226-0.227-0.445-0.453-0.66-0.684
		c-0.012-0.441-0.023-0.879-0.023-1.308c0-0.969,0.019-1.93,0.054-2.891c0.012-0.32,0.035-0.637,0.051-0.957
		c0.031-0.637,0.063-1.277,0.109-1.91c0.028-0.379,0.067-0.754,0.102-1.129c0.051-0.574,0.098-1.145,0.16-1.715
		c0.043-0.398,0.102-0.797,0.153-1.199c0.066-0.539,0.132-1.082,0.21-1.617c0.063-0.41,0.133-0.817,0.204-1.223
		c0.082-0.523,0.168-1.051,0.265-1.57c0.074-0.41,0.16-0.821,0.246-1.231c0.102-0.511,0.203-1.023,0.317-1.531
		c0.093-0.41,0.195-0.82,0.293-1.23c0.121-0.5,0.238-1,0.367-1.497c0.109-0.41,0.226-0.82,0.34-1.226
		c0.136-0.492,0.273-0.981,0.418-1.469c0.125-0.406,0.254-0.812,0.386-1.215c0.153-0.48,0.305-0.965,0.469-1.441
		c0.137-0.402,0.281-0.801,0.426-1.203c0.168-0.473,0.34-0.946,0.519-1.414c0.153-0.399,0.309-0.793,0.469-1.188
		c0.188-0.465,0.375-0.929,0.571-1.39c0.164-0.391,0.335-0.782,0.507-1.168c0.203-0.457,0.411-0.914,0.621-1.364
		c0.18-0.386,0.364-0.769,0.551-1.152c0.219-0.445,0.438-0.895,0.668-1.34c0.192-0.375,0.387-0.75,0.586-1.121
		c0.235-0.441,0.473-0.883,0.719-1.32c0.207-0.367,0.414-0.735,0.625-1.098c0.25-0.433,0.508-0.863,0.765-1.293
		c0.219-0.359,0.442-0.719,0.665-1.074c0.265-0.426,0.539-0.848,0.812-1.266c0.231-0.351,0.465-0.699,0.699-1.047
		c0.282-0.418,0.571-0.828,0.864-1.238c0.242-0.34,0.484-0.683,0.73-1.019c0.301-0.407,0.606-0.809,0.91-1.207
		c0.254-0.332,0.508-0.664,0.766-0.993c0.316-0.394,0.637-0.789,0.961-1.179c0.261-0.321,0.523-0.641,0.793-0.957
		c0.332-0.387,0.672-0.774,1.008-1.153c0.273-0.308,0.546-0.621,0.824-0.925c0.347-0.379,0.703-0.75,1.058-1.122
		c0.282-0.296,0.563-0.597,0.852-0.89c0.363-0.367,0.738-0.731,1.109-1.094c0.289-0.285,0.578-0.57,0.875-0.851
		c0.383-0.36,0.774-0.715,1.164-1.067c0.297-0.269,0.59-0.543,0.891-0.808c0.402-0.356,0.816-0.7,1.227-1.047
		c0.3-0.254,0.597-0.512,0.902-0.758c0.426-0.348,0.859-0.688,1.293-1.024c0.305-0.238,0.601-0.48,0.906-0.711
		c0.457-0.347,0.926-0.679,1.391-1.015c0.293-0.215,0.582-0.43,0.879-0.641c0.511-0.359,1.039-0.707,1.562-1.058
		c0.258-0.172,0.512-0.352,0.77-0.52c0.683-0.445,1.379-0.875,2.078-1.297c0.109-0.066,0.215-0.137,0.324-0.203
		c0.813-0.484,1.633-0.953,2.461-1.41c0.285-0.156,0.578-0.305,0.863-0.457c0.551-0.293,1.102-0.59,1.664-0.871
		c0.36-0.184,0.727-0.352,1.09-0.528c0.457-0.222,0.914-0.445,1.375-0.66c8.699,8.313,20.305,13.016,32.352,13.016
		c12.047,0,23.652-4.707,32.355-13.016c16.981,7.86,30.883,21.961,38.43,39.114c1.066,2.425,3.898,3.527,6.324,2.461
		c2.426-1.071,3.527-3.903,2.461-6.329c-8.254-18.757-22.625-33.75-40.816-42.8c5.277-7.743,8.132-16.883,8.132-26.317
		c0-25.851-21.031-46.887-46.886-46.887c-2.649,0-4.801,2.149-4.801,4.801c0,2.649,2.152,4.801,4.801,4.801
		c20.562,0,37.289,16.727,37.289,37.285c0,9.196-3.418,18.047-9.621,24.926l-0.004,0.004c-7.082,7.855-17.164,12.359-27.664,12.359
		c-10.5,0-20.582-4.504-27.664-12.359c-0.004-0.004-0.004-0.004-0.004-0.004c-6.203-6.883-9.621-15.73-9.621-24.926
		c0-10.035,3.929-19.449,11.062-26.504c1.887-1.867,1.902-4.906,0.039-6.789c-1.867-1.886-4.906-1.902-6.789-0.039
		c-8.969,8.875-13.91,20.711-13.91,33.332c0,9.422,2.848,18.559,8.117,26.297c-0.047,0.024-0.094,0.047-0.14,0.07
		c-0.375,0.188-0.739,0.387-1.114,0.579c-0.566,0.292-1.136,0.585-1.699,0.894c-0.395,0.215-0.785,0.441-1.176,0.664
		c-0.523,0.297-1.051,0.59-1.566,0.899c-0.403,0.238-0.797,0.484-1.192,0.726c-0.496,0.309-0.992,0.613-1.48,0.926
		c-0.398,0.258-0.793,0.519-1.188,0.785c-0.472,0.316-0.945,0.633-1.414,0.957c-0.394,0.274-0.781,0.555-1.168,0.832
		c-0.457,0.328-0.91,0.66-1.359,0.996c-0.387,0.289-0.766,0.582-1.144,0.875c-0.442,0.344-0.879,0.688-1.309,1.035
		c-0.375,0.305-0.746,0.61-1.117,0.918c-0.422,0.356-0.844,0.715-1.262,1.078c-0.363,0.313-0.723,0.629-1.078,0.95
		c-0.414,0.371-0.82,0.746-1.223,1.125c-0.351,0.324-0.699,0.652-1.043,0.984c-0.398,0.383-0.793,0.777-1.183,1.168
		c-0.336,0.336-0.668,0.672-0.996,1.012c-0.387,0.402-0.77,0.808-1.149,1.218c-0.32,0.344-0.637,0.684-0.949,1.032
		c-0.383,0.422-0.75,0.855-1.121,1.285c-0.301,0.344-0.602,0.687-0.895,1.035c-0.375,0.453-0.738,0.91-1.105,1.367
		c-0.274,0.344-0.555,0.68-0.82,1.024c-0.387,0.496-0.758,1-1.133,1.504c-0.235,0.32-0.477,0.628-0.707,0.949
		c-0.473,0.656-0.934,1.32-1.387,1.992c-0.121,0.176-0.246,0.348-0.363,0.523c-0.567,0.844-1.118,1.7-1.653,2.563
		c-0.183,0.297-0.359,0.601-0.539,0.902c-0.347,0.574-0.695,1.149-1.027,1.735c-0.207,0.363-0.406,0.734-0.606,1.101
		c-0.293,0.528-0.585,1.055-0.867,1.59c-0.207,0.395-0.406,0.797-0.605,1.195c-0.262,0.516-0.524,1.028-0.774,1.551
		c-0.199,0.414-0.39,0.832-0.582,1.25c-0.238,0.512-0.476,1.027-0.703,1.547c-0.187,0.426-0.367,0.859-0.547,1.289
		c-0.215,0.52-0.429,1.035-0.636,1.559c-0.176,0.437-0.34,0.879-0.508,1.32c-0.195,0.523-0.391,1.047-0.578,1.574
		c-0.157,0.446-0.313,0.895-0.465,1.348c-0.176,0.527-0.352,1.058-0.52,1.59c-0.14,0.457-0.281,0.91-0.418,1.367
		c-0.16,0.539-0.312,1.078-0.461,1.621c-0.129,0.457-0.253,0.914-0.371,1.375c-0.14,0.551-0.277,1.098-0.406,1.652
		c-0.109,0.461-0.219,0.918-0.32,1.383c-0.125,0.559-0.239,1.121-0.352,1.684c-0.09,0.461-0.183,0.922-0.269,1.386
		c-0.106,0.575-0.2,1.153-0.293,1.731c-0.075,0.453-0.153,0.91-0.219,1.367c-0.086,0.598-0.16,1.195-0.234,1.797
		c-0.055,0.445-0.118,0.891-0.165,1.336c-0.07,0.629-0.121,1.262-0.175,1.894c-0.039,0.422-0.082,0.84-0.114,1.266
		c-0.05,0.707-0.085,1.414-0.117,2.125c-0.019,0.356-0.043,0.703-0.058,1.059c-0.039,1.066-0.059,2.132-0.059,3.207
		c0,1.16,0.039,2.258,0.086,3.465c0.012,0.281,0.051,0.554,0.105,0.82c0.004,0.019,0.008,0.039,0.012,0.062
		c0.059,0.262,0.145,0.512,0.242,0.754c0.012,0.024,0.02,0.047,0.032,0.074c0.101,0.239,0.226,0.469,0.363,0.684
		c0.019,0.027,0.035,0.055,0.055,0.082c0.14,0.215,0.3,0.414,0.472,0.602c0.016,0.015,0.024,0.031,0.035,0.043l0.633,0.675
		c0.481,0.512,0.957,1.024,1.457,1.52c22.992,22.992,53.196,34.488,83.395,34.488c30.203,0,60.402-11.496,83.394-34.488
		c0.5-0.496,0.977-1.008,1.457-1.52l0.633-0.675c21.274-22.375,32.789-51.715,32.43-82.618
		C235.48,85.5,223.223,56.386,201.324,34.488L201.324,34.488z M201.324,34.488"/>
	<rect x="0" style="fill:none;" width="235.92" height="236"/>
</g>
</svg>
