<?xml version="1.0" encoding="iso-8859-1"?>
<!-- Generator: Adobe Illustrator 18.0.0, SVG Export Plug-In . SVG Version: 6.00 Build 0)  -->
<!DOCTYPE svg PUBLIC "-//W3C//DTD SVG 1.1//EN" "http://www.w3.org/Graphics/SVG/1.1/DTD/svg11.dtd">
<svg version="1.1" id="Capa_1" xmlns="http://www.w3.org/2000/svg" xmlns:xlink="http://www.w3.org/1999/xlink" x="0px" y="0px"
	 viewBox="-16.333 173.667 446.667 446.667" style="enable-background:new -16.333 173.667 446.667 446.667;" xml:space="preserve">
<g>
	<path style="fill:#FFFFFF;" d="M356.333,311.667v-10H57.667c-1.592-0.001-3.058-0.317-4.408-0.887
		c-2.021-0.853-3.772-2.303-4.995-4.117c-1.223-1.821-1.926-3.948-1.93-6.33l0,0c0.001-1.592,0.317-3.058,0.887-4.408
		c0.853-2.021,2.303-3.772,4.117-4.995c1.821-1.223,3.948-1.926,6.33-1.93h298.667c1.592,0.001,3.058,0.317,4.408,0.887
		c2.021,0.853,3.772,2.303,4.995,4.117c1.223,1.821,1.926,3.948,1.93,6.33v0c-0.001,1.592-0.317,3.058-0.887,4.408
		c-0.853,2.021-2.303,3.772-4.117,4.995c-1.821,1.223-3.948,1.926-6.33,1.93V311.667v10c4.299,0.001,8.445-0.877,12.199-2.466
		c5.636-2.386,10.4-6.346,13.777-11.341c3.377-4.989,5.361-11.071,5.357-17.526l0,0c0.001-4.299-0.877-8.445-2.466-12.199
		c-2.386-5.636-6.346-10.4-11.341-13.777c-4.989-3.377-11.071-5.361-17.526-5.357H57.667c-4.299-0.001-8.445,0.877-12.199,2.466
		c-5.636,2.386-10.4,6.346-13.777,11.341c-3.377,4.989-5.361,11.071-5.357,17.526v0c-0.001,4.299,0.877,8.445,2.466,12.199
		c2.386,5.636,6.346,10.4,11.341,13.777c4.989,3.377,11.071,5.361,17.526,5.357h298.667L356.333,311.667z"/>
	<path style="fill:#FFFFFF;" d="M313.667,183.667v-10H100.333c-4.299-0.001-8.445,0.877-12.199,2.466
		c-5.636,2.386-10.4,6.346-13.777,11.341C70.98,192.463,68.996,198.545,69,205v0c-0.001,4.299,0.877,8.445,2.466,12.199
		c2.386,5.636,6.346,10.4,11.341,13.777c4.989,3.377,11.071,5.361,17.526,5.357h213.333c4.299,0.001,8.445-0.877,12.199-2.466
		c5.636-2.386,10.4-6.346,13.777-11.341c3.377-4.989,5.361-11.071,5.357-17.526l0,0c0.001-4.299-0.877-8.445-2.466-12.199
		c-2.386-5.636-6.346-10.4-11.341-13.777c-4.989-3.377-11.071-5.361-17.526-5.357V183.667v10c1.592,0.001,3.058,0.317,4.408,0.887
		c2.021,0.853,3.772,2.303,4.995,4.117c1.223,1.821,1.926,3.948,1.93,6.33v0c-0.001,1.592-0.317,3.058-0.887,4.408
		c-0.853,2.021-2.303,3.772-4.117,4.995c-1.821,1.223-3.948,1.926-6.33,1.93H100.333c-1.592-0.001-3.058-0.317-4.408-0.887
		c-2.021-0.853-3.772-2.303-4.995-4.117c-1.223-1.821-1.926-3.948-1.93-6.33l0,0c0.001-1.592,0.317-3.058,0.887-4.408
		c0.853-2.021,2.303-3.772,4.117-4.995c1.821-1.223,3.948-1.926,6.33-1.93h213.333V183.667z"/>
	<path style="fill:#FFFFFF;" d="M420.333,397h-10v170.667c-0.001,4.541-0.914,8.815-2.562,12.718
		c-2.471,5.85-6.624,10.855-11.842,14.378c-5.225,3.522-11.457,5.567-18.262,5.571H36.333c-4.541-0.001-8.814-0.914-12.718-2.562
		c-5.85-2.471-10.855-6.624-14.378-11.842c-3.522-5.225-5.567-11.457-5.571-18.262V397c0.001-4.541,0.914-8.814,2.562-12.717
		c2.471-5.85,6.624-10.855,11.842-14.378c5.225-3.522,11.457-5.567,18.262-5.571h341.333c4.541,0.001,8.815,0.914,12.718,2.562
		c5.85,2.471,10.855,6.624,14.378,11.842c3.522,5.225,5.567,11.457,5.571,18.262H420.333h10c0.001-7.245-1.473-14.199-4.141-20.506
		c-4.004-9.465-10.668-17.487-19.069-23.163c-8.394-5.677-18.582-9.002-29.457-8.998H36.333c-7.245-0.001-14.199,1.473-20.506,4.141
		c-9.465,4.004-17.487,10.668-23.163,19.069c-5.677,8.394-9.002,18.582-8.998,29.457v170.667
		c-0.001,7.245,1.473,14.199,4.141,20.506c4.004,9.465,10.668,17.487,19.069,23.163c8.394,5.677,18.582,9.002,29.457,8.998h341.333
		c7.245,0.001,14.199-1.473,20.506-4.141c9.465-4.004,17.487-10.668,23.163-19.069c5.677-8.394,9.002-18.582,8.998-29.457V397
		L420.333,397z"/>
	<path style="fill:#FFFFFF;" d="M273.912,472.309l4.78-8.784l-92.711-50.45c-3.23-1.764-6.792-2.627-10.223-2.62
		c-2.831,0-5.574,0.567-8.09,1.596c-3.773,1.546-7.072,4.129-9.48,7.553c-1.201,1.711-2.172,3.633-2.836,5.709
		c-0.665,2.074-1.02,4.299-1.019,6.571v100.901c-0.003,3.03,0.633,5.972,1.782,8.593c1.725,3.942,4.549,7.144,7.953,9.355
		c3.405,2.212,7.439,3.478,11.689,3.48c3.431,0.006,6.993-0.856,10.223-2.62l92.711-50.45c3.618-1.958,6.508-4.878,8.379-8.185
		c1.882-3.311,2.798-6.977,2.798-10.623c-0.001-3.645-0.916-7.312-2.799-10.623c-1.871-3.307-4.761-6.227-8.379-8.185
		L273.912,472.309l-4.78,8.784c0.354,0.203,0.442,0.329,0.557,0.511c0.104,0.178,0.181,0.443,0.18,0.729
		c0.001,0.286-0.077,0.551-0.18,0.729c-0.115,0.182-0.203,0.308-0.557,0.511l-92.711,50.45c-0.311,0.162-0.469,0.182-0.663,0.188
		c-0.156,0-0.334-0.032-0.519-0.108c-0.28-0.112-0.541-0.326-0.68-0.531c-0.072-0.104-0.122-0.203-0.159-0.319
		c-0.036-0.117-0.065-0.253-0.066-0.472V431.883c0.003-0.291,0.048-0.438,0.108-0.583c0.088-0.206,0.264-0.425,0.527-0.597
		c0.262-0.171,0.56-0.252,0.789-0.249c0.194,0.006,0.352,0.025,0.663,0.188l92.711,50.45L273.912,472.309z"/>
</g>
</svg>
