<?xml version="1.0" encoding="iso-8859-1"?>
<!-- Generator: Adobe Illustrator 18.0.0, SVG Export Plug-In . SVG Version: 6.00 Build 0)  -->
<!DOCTYPE svg PUBLIC "-//W3C//DTD SVG 1.1//EN" "http://www.w3.org/Graphics/SVG/1.1/DTD/svg11.dtd">
<svg version="1.1" id="Capa_1" xmlns="http://www.w3.org/2000/svg" xmlns:xlink="http://www.w3.org/1999/xlink" x="0px" y="0px"
	 viewBox="0 0 71.727 71.727" style="enable-background:new 0 0 71.727 71.727;" xml:space="preserve">
<g id="XMLID_1346_">
	<radialGradient id="XMLID_6_" cx="-1.7947" cy="71.9648" r="132.6155" gradientUnits="userSpaceOnUse">
		<stop  offset="0" style="stop-color:#F5EC53"/>
		<stop  offset="0.2412" style="stop-color:#E48244"/>
		<stop  offset="0.3974" style="stop-color:#D15767"/>
		<stop  offset="0.4888" style="stop-color:#C84278"/>
		<stop  offset="1" style="stop-color:#192CFA"/>
	</radialGradient>
	<path id="XMLID_1418_" style="fill:url(#XMLID_6_);" d="M35.863,71.727L35.863,71.727C16.056,71.727,0,55.67,0,35.863l0,0
		C0,16.056,16.056,0,35.863,0h0C55.67,0,71.727,16.056,71.727,35.863l0,0C71.727,55.67,55.67,71.727,35.863,71.727z"/>
	<g id="XMLID_1347_">
		<path id="XMLID_1352_" style="fill:#FFFFFF;" d="M35.863,19.742c5.251,0,5.872,0.02,7.946,0.115
			c1.917,0.087,2.958,0.408,3.652,0.677c0.918,0.357,1.573,0.783,2.261,1.471c0.688,0.688,1.114,1.343,1.471,2.261
			c0.269,0.693,0.589,1.734,0.677,3.652c0.094,2.073,0.115,2.695,0.115,7.946c0,5.251-0.02,5.873-0.115,7.946
			c-0.088,1.917-0.408,2.958-0.677,3.651c-0.357,0.918-0.783,1.573-1.471,2.261c-0.688,0.688-1.343,1.114-2.261,1.471
			c-0.693,0.27-1.735,0.59-3.652,0.677c-2.073,0.094-2.695,0.114-7.946,0.114c-5.251,0-5.872-0.02-7.946-0.114
			c-1.917-0.087-2.958-0.408-3.651-0.677c-0.918-0.357-1.573-0.783-2.261-1.471c-0.688-0.688-1.114-1.343-1.471-2.261
			c-0.269-0.693-0.59-1.734-0.677-3.651c-0.094-2.073-0.114-2.695-0.114-7.946c0-5.251,0.02-5.872,0.114-7.946
			c0.088-1.917,0.408-2.958,0.677-3.652c0.357-0.918,0.783-1.573,1.471-2.261c0.688-0.688,1.343-1.114,2.261-1.471
			c0.693-0.269,1.734-0.59,3.651-0.677C29.991,19.762,30.613,19.742,35.863,19.742 M35.863,16.199c-5.34,0-6.01,0.023-8.107,0.118
			c-2.093,0.095-3.522,0.428-4.773,0.914c-1.293,0.503-2.39,1.175-3.483,2.268c-1.093,1.093-1.766,2.19-2.268,3.483
			c-0.486,1.251-0.819,2.68-0.914,4.773c-0.096,2.098-0.118,2.767-0.118,8.107s0.023,6.01,0.118,8.108
			c0.095,2.093,0.428,3.522,0.914,4.773c0.502,1.293,1.174,2.39,2.268,3.483c1.093,1.093,2.19,1.766,3.483,2.268
			c1.251,0.486,2.68,0.819,4.773,0.914c2.097,0.096,2.767,0.118,8.107,0.118c5.34,0,6.01-0.023,8.107-0.118
			c2.093-0.095,3.522-0.428,4.773-0.914c1.293-0.503,2.39-1.175,3.483-2.268c1.093-1.093,1.766-2.19,2.268-3.483
			c0.486-1.251,0.819-2.68,0.914-4.773c0.095-2.097,0.118-2.767,0.118-8.108s-0.023-6.01-0.118-8.107
			c-0.096-2.093-0.428-3.522-0.914-4.773c-0.502-1.293-1.175-2.39-2.268-3.483c-1.093-1.093-2.19-1.766-3.483-2.268
			c-1.251-0.486-2.68-0.819-4.773-0.914C41.873,16.222,41.204,16.199,35.863,16.199"/>
		<path id="XMLID_1349_" style="fill:#FFFFFF;" d="M35.863,25.766c-5.576,0-10.098,4.521-10.098,10.098
			c0,5.577,4.521,10.098,10.098,10.098c5.577,0,10.098-4.521,10.098-10.098C45.961,30.287,41.44,25.766,35.863,25.766
			 M35.863,42.418c-3.62,0-6.555-2.935-6.555-6.555c0-3.62,2.934-6.555,6.555-6.555c3.62,0,6.555,2.934,6.555,6.555
			C42.418,39.483,39.483,42.418,35.863,42.418"/>
		<path id="XMLID_1348_" style="fill:#FFFFFF;" d="M48.72,25.367c0,1.303-1.056,2.36-2.36,2.36c-1.303,0-2.36-1.057-2.36-2.36
			c0-1.303,1.056-2.36,2.36-2.36C47.663,23.007,48.72,24.064,48.72,25.367"/>
	</g>
</g>
</svg>
