<?xml version="1.0" encoding="utf-8"?>
<!-- Generator: Adobe Illustrator 18.0.0, SVG Export Plug-In . SVG Version: 6.00 Build 0)  -->
<!DOCTYPE svg PUBLIC "-//W3C//DTD SVG 1.1//EN" "http://www.w3.org/Graphics/SVG/1.1/DTD/svg11.dtd">
<svg version="1.1" id="Background_2" xmlns="http://www.w3.org/2000/svg" xmlns:xlink="http://www.w3.org/1999/xlink" x="0px"
	 y="0px" viewBox="0 0 210.9 210.9" enable-background="new 0 0 210.9 210.9" xml:space="preserve">
<g>
	<defs>
		<rect id="SVGID_9_" x="-0.1" y="0" width="211" height="210.9"/>
	</defs>
	<clipPath id="SVGID_2_">
		<use xlink:href="#SVGID_9_"  overflow="visible"/>
	</clipPath>
	<rect x="-1.9" y="-3" clip-path="url(#SVGID_2_)" fill="#CB1E39" width="214.6" height="218.1"/>
	<g clip-path="url(#SVGID_2_)">
		<g>
			<path fill="#FFFFFF" d="M54.5,115.6c-15.7,32.1-3.8,57.7-3.8,57.7l-16.1,1.4l-10.5,0.9c-12.1-51,36.4-85.3,36.7-85.6
				c-24.9,31.2-20.5,61.9-20.5,61.9C40,136.4,54.3,115.9,54.5,115.6z"/>
			<path fill="#DFDFDF" d="M34.6,174.7l-10.5,0.9c-12.1-51,36.4-85.3,36.7-85.6c-0.2,0.3-32,35.1-32.3,59
				C28.3,162.8,31.7,170.6,34.6,174.7z"/>
		</g>
		<g>
			<g>
				<path fill="#FFFFFF" d="M170.2,187.4c-2.1,0-4,0.3-5.9,0.9c-3-7-9-12.4-16.4-14.6c-0.2,0-0.3-0.1-0.5-0.1
					c-0.1,0-0.2-0.1-0.3-0.1c-2.2-0.6-4.4-0.9-6.8-0.9c-1.3,0-2.6,0.1-3.9,0.3c-2.6-5.3-8.1-9-14.5-9c-0.9,0-1.7,0.1-2.6,0.2
					c-4.1,0.7-7.6,2.8-10.1,6c-2.1-0.5-4.3-0.8-6.6-0.8c-0.3,0-0.6,0-0.9,0c-5.1-6.8-13.2-11.3-22.4-11.3c-6.4,0-12.2,2.1-16.9,5.7
					c-3.1,2.4-5.7,5.4-7.6,8.9c-1.7-0.9-3.6-1.7-5.5-2.2c-1.1-0.3-2.2-0.6-3.3-0.7c-1.4-0.2-2.9-0.3-4.4-0.3c-3.3,0-6.5,0.6-9.4,1.6
					c-0.7,0.3-1.4,0.5-2.1,0.8c-1.9-3.9-4.7-7.3-8.1-9.9c-1-0.8-2.1-1.5-3.2-2.2v-0.1c0-1.1-0.1-2.2-0.2-3.2c-0.2-1.7-0.5-3.3-1-4.8
					c0,0,0,0,0,0c0-0.1,0-0.2-0.1-0.2c0,0,0,0,0,0c-2.2-7.2-7.3-13.1-13.8-16.5c-2.7-1.4-5.7-2.4-8.8-2.8c0,0,0,0,0,0
					c-1.3-0.2-2.6-0.3-3.9-0.3c-2.5,0-5,0.3-7.3,1c-1.5,0.4-3,0.9-4.4,1.6c-2.6-2.7-6-4.7-9.8-5.6c0.4-0.7,0.8-1.4,1.2-2.2
					c0.2-0.4,0.3-0.8,0.5-1.1c0.1-0.3,0.2-0.5,0.3-0.8c0.1-0.4,0.3-0.8,0.4-1.2c0.1-0.2,0.2-0.5,0.2-0.7c0.6-2.2,0.9-4.5,0.9-6.9
					c0-2.8-0.4-5.4-1.3-7.9c-0.4-1.2-0.9-2.4-1.5-3.6c-0.1-0.1-0.1-0.2-0.2-0.3v0h0v0c-0.1-0.3-0.3-0.5-0.4-0.8
					c-0.1-0.1-0.2-0.3-0.2-0.4c-0.2-0.3-0.3-0.5-0.5-0.8c-0.9-1.4-2-2.7-3.2-3.9c-0.3-0.3-0.6-0.6-0.9-0.9v0
					c1.4-2.2,2.3-4.8,2.3-7.6c0-0.6,0-1.1-0.1-1.7h-3.6c-2.2,0-4,1.8-4,4v115.9c0,2.2,1.8,4,4,4h222.9c1.9,0,3.6-1.4,3.9-3.3v-3.3
					C189.1,195.2,180.6,187.4,170.2,187.4z"/>
			</g>
			<path fill="#DFDFDF" d="M170.2,187.4c-2.1,0-4,0.3-5.9,0.9c-3-7-9-12.4-16.4-14.6c7.6,2.4,7.3,11.8,0.3,15.2
				c-1.5,0.7-3.2,1.2-5.2,1.2c-12.1,0.5-14-4-14-4s-2.7,10.9-14.8,12.3c-5.1,0.6-9.4-0.1-12.8-1.2h0c-5.8-1.9-9-5.1-9-5.1
				s-4.5,4.3-12.2,6.9c-4.3,1.4-9.5,2.3-15.4,1.5c-1-0.1-2-0.3-2.9-0.4c-15.9-2.9-17.7-11.3-17.7-11.3c-3.4,5.8-10.2,9.7-21.3,7.4
				c-11-2.3-12.8-9.5-12.8-9.5c-4.8,7.9-19.5,9.2-23.8,0c-4.4-9.2,0-15.9,0-15.9c-7.2,0.5-14.5-11.6-9.5-24.1
				c2.3-5.8,6.6-9,11.1-10.7h0c7.7-2.9,16-1.3,16.1-1.3c-2.7-1.4-5.7-2.4-8.8-2.8c0,0,0,0,0,0c-1.3-0.2-2.6-0.3-3.9-0.3
				c-2.5,0-5,0.3-7.3,1c-1.5,0.4-3,0.9-4.4,1.6c-2.6-2.7-6-4.7-9.8-5.6c0.4-0.7,0.8-1.4,1.2-2.2c0.2-0.4,0.3-0.8,0.5-1.1
				c0.1-0.3,0.2-0.5,0.3-0.8c0.1-0.4,0.3-0.8,0.4-1.2c0.1-0.2,0.2-0.5,0.2-0.7c0.6-2.2,0.9-4.5,0.9-6.9c0-2.8-0.4-5.4-1.3-7.9
				c-0.4-1.2-0.9-2.4-1.5-3.6c-0.1-0.1-0.1-0.2-0.2-0.3v0h0v0c-0.1-0.3-0.3-0.5-0.4-0.8c-0.1-0.1-0.2-0.3-0.2-0.4
				c-0.2-0.3-0.3-0.5-0.5-0.8c-0.9-1.4-2-2.7-3.2-3.9c-0.3-0.3-0.6-0.6-0.9-0.9c1.4-2.2,2.3-4.8,2.3-7.6c0-0.6,0-1.1-0.1-1.7h-3.6
				c-2.2,0-4,1.8-4,4v115.9c0,2.2,1.8,4,4,4h222.9c1.9,0,3.6-1.4,3.9-3.3v-3.3C189.1,195.2,180.6,187.4,170.2,187.4z"/>
		</g>
		<g>
			<circle fill="#DFDFDF" cx="-0.1" cy="119.6" r="4.1"/>
			<circle fill="#FFFFFF" cx="0.7" cy="118.7" r="2.9"/>
		</g>
		<g>
			<circle fill="#DFDFDF" cx="78" cy="149.9" r="2.5"/>
			<circle fill="#FFFFFF" cx="78.5" cy="149.3" r="1.8"/>
		</g>
		<g>
			<circle fill="#DFDFDF" cx="29.8" cy="111.3" r="1.4"/>
			<circle fill="#FFFFFF" cx="30" cy="111" r="1"/>
		</g>
		<g>
			<polygon fill="#FFFFFF" points="18,145.2 20.2,123.2 16.3,133.4 18.3,97.5 14.4,140.4 18.1,132.8 			"/>
			<polygon fill="#FFFFFF" points="51.3,161.1 67.2,145.7 57.7,151 82.4,124.9 51.7,155.1 59.4,151.7 			"/>
		</g>
	</g>
</g>
</svg>
