<svg xmlns="http://www.w3.org/2000/svg" width="300" height="34" viewBox="0 0 300 34">
  <metadata><?xpacket begin="﻿" id="W5M0MpCehiHzreSzNTczkc9d"?>
<x:xmpmeta xmlns:x="adobe:ns:meta/" x:xmptk="Adobe XMP Core 5.6-c142 79.160924, 2017/07/13-01:06:39        ">
   <rdf:RDF xmlns:rdf="http://www.w3.org/1999/02/22-rdf-syntax-ns#">
      <rdf:Description rdf:about=""/>
   </rdf:RDF>
</x:xmpmeta>
                                                                                                    
                                                                                                    
                                                                                                    
                                                                                                    
                                                                                                    
                                                                                                    
                                                                                                    
                                                                                                    
                                                                                                    
                                                                                                    
                                                                                                    
                                                                                                    
                                                                                                    
                                                                                                    
                                                                                                    
                                                                                                    
                                                                                                    
                                                                                                    
                                                                                                    
                                                                                                    
                           
<?xpacket end="w"?></metadata>
<defs>
    <style>
      .cls-1 {
        fill: #0266a8;
        fill-rule: evenodd;
      }

      .cls-2 {
        fill: #006fba;
      }
    </style>
  </defs>
  <path id="Rectangle_832_copy" data-name="Rectangle 832 copy" class="cls-1" d="M0,7H48V34H0L10,21Z"/>
  <path id="Rectangle_832_copy_2" data-name="Rectangle 832 copy 2" class="cls-1" d="M300,7H252V34h48L290,21Z"/>
  <rect class="cls-2" x="24" width="252" height="27"/>
</svg>
